{
	"description":
	{
		"message": "Display natal and progressed charts and transit tables, save birth coordinates with import/export option",
		"description": "extension description"
	},
	"signes":
	{
		"message": "Aries,Taurus,Gemini,Cancer,Leo,Virgo,Libra,Scorpio,Sagittarius,Capricorn,Aquarius,Pisces",
		"description": "signs"
	},
	"planetes":
	{
		"message": "Sun,Moon,Mercury,Venus,Mars,Jupiter,Saturn,Uranus,Neptune,Pluto,North Node,Lilith, South Node",
		"description": "planets"
	},
	"aspects":
	{
		"message": "Conjunction,Semisextile,Semisquare,Sextile,Square,Trine,Sesquisquare,Quincunx,Opposition,Quincunx,Sesquisquare,Trine,Square,Sextile,Semisquare,Semisextile,Conjunction",
		"description": "aspects"
	},
	"dignites":
	{
		"message": "Domicile,Intercepted House,Detriment,Fall,Exaltation",
		"description": "dignities"
	},
	"labelsCentre":
	{
		"message": "now,Houses,Theme,2-progressed/natal,3-progressed/progressed,1-outer planets,flip chart/table,sensitivity,progressed,natal Houses,inhabited House,ruled House.s,year,Individual Planets: Sun-Saturn + ASC MC,Collective Planets: Uranus-Pluto + FC DS,equation of time,correction of the birth time according to the delay or advance of the true sun compared to its average stroke",
		"description": "center labels"
	},
	"labelsGauche":
	{
		"message": "name,date of birth,time,place,add file,clear all,cancel,update,delete file,confirm file deletion: ,Confirm deletion of all records in all groups,dd/mm/yyyy,East:positive - West:negative,North: positive - South: negative,error!,missing,click: display & double-click: modify,East:positive - West:negative",
		"description": "left labels"
	},
	"labelsDroite":
	{
		"message": "Zodiac ,Monday,Tueday,Wednesday,Thursday,Friday,Saturday,Sunday, born on , in ,outer planets Transits ,progressed/natal Transits ,progressed/progressed Transits ,progressed Chart,natal Houses on ,progressed Houses on , (time of birth ,modified , at ,House (d/m),Sign (d/m),hide ,show ,left panel - , - center panel,title - , - brightness,mundane,by adjusting date & time,click: dynamic mode",
		"description": "right labels"
	},
	"options":
	{
		"message": "location ,save,- location not defined -,default,orbs,seek",
		"description": "default city"
	},
	"groupes":
	{
		"message": "-----,create group,rename/delete group,assign groups,general,already in use,assign at least one person to the group,if group cleared transfer of names in the general group",
		"description": "groupes"
	},
	"dominantes":
	{
		"message": "Yang,Yin,Cardinal,Fixed,Mutable,Fire,Earth,Air,Water,Instinctual,Mental,Individual,Social,Interiority,Exteriority,hot,cold,dry,wet,polarities,qualities,elements,display; ",
		"description": "dominant Elements"
	}
}
